x-axis,2
second,Volt
-5.000000E-03,-1.779135640E+00
-4.995000E-03,-1.859537649E+00
-4.990000E-03,-1.728884384E+00
-4.985000E-03,-1.754010012E+00
-4.980000E-03,-1.728884384E+00
-4.975000E-03,-1.673608003E+00
-4.970000E-03,-1.754010012E+00
-4.965000E-03,-1.673608003E+00
-4.960000E-03,-1.593205994E+00
-4.955000E-03,-1.568080366E+00
-4.950000E-03,-1.487678356E+00
-4.945000E-03,-1.537929612E+00
-4.940000E-03,-1.487678356E+00
-4.935000E-03,-1.351999966E+00
-4.930000E-03,-1.407276347E+00
-4.925000E-03,-1.407276347E+00
-4.920000E-03,-1.351999966E+00
-4.915000E-03,-1.326874338E+00
-4.910000E-03,-1.326874338E+00
-4.905000E-03,-1.271597957E+00
-4.900000E-03,-1.191195948E+00
-4.895000E-03,-1.246472329E+00
-4.890000E-03,-1.191195948E+00
-4.885000E-03,-1.085668311E+00
-4.880000E-03,-1.085668311E+00
-4.875000E-03,-1.085668311E+00
-4.870000E-03,-1.005266301E+00
-4.865000E-03,-1.005266301E+00
-4.860000E-03,-1.030391929E+00
-4.855000E-03,-1.005266301E+00
-4.850000E-03,-924.864292E-03
-4.845000E-03,-924.864292E-03
-4.840000E-03,-869.587911E-03
-4.835000E-03,-844.462283E-03
-4.830000E-03,-844.462283E-03
-4.825000E-03,-733.909520E-03
-4.820000E-03,-764.060274E-03
-4.815000E-03,-683.658265E-03
-4.810000E-03,-628.381883E-03
-4.805000E-03,-653.507511E-03
-4.800000E-03,-603.256255E-03
-4.795000E-03,-573.105502E-03
-4.790000E-03,-603.256255E-03
-4.785000E-03,-522.854246E-03
-4.780000E-03,-522.854246E-03
-4.775000E-03,-467.577865E-03
-4.770000E-03,-442.452237E-03
-4.765000E-03,-412.301484E-03
-4.760000E-03,-412.301484E-03
-4.755000E-03,-331.899474E-03
-4.750000E-03,-331.899474E-03
-4.745000E-03,-281.648219E-03
-4.740000E-03,-226.371837E-03
-4.735000E-03,-251.497465E-03
-4.730000E-03,-171.095456E-03
-4.725000E-03,-120.844200E-03
-4.720000E-03,-120.844200E-03
-4.715000E-03,-90.693447E-03
-4.710000E-03,-120.844200E-03
-4.705000E-03,-90.693447E-03
-4.700000E-03,+39.959818E-03
-4.695000E-03,+14.834190E-03
-4.690000E-03,+95.236199E-03
-4.685000E-03,+95.236199E-03
-4.680000E-03,+70.110572E-03
-4.675000E-03,+120.361827E-03
-4.670000E-03,+200.763837E-03
-4.665000E-03,+256.040218E-03
-4.660000E-03,+175.638209E-03
-4.655000E-03,+256.040218E-03
-4.650000E-03,+256.040218E-03
-4.645000E-03,+361.567855E-03
-4.640000E-03,+361.567855E-03
-4.635000E-03,+361.567855E-03
-4.630000E-03,+336.442227E-03
-4.625000E-03,+416.844236E-03
-4.620000E-03,+391.718608E-03
-4.615000E-03,+472.120618E-03
-4.610000E-03,+577.648255E-03
-4.605000E-03,+577.648255E-03
-4.600000E-03,+602.773882E-03
-4.595000E-03,+602.773882E-03
-4.590000E-03,+683.175892E-03
-4.585000E-03,+683.175892E-03
-4.580000E-03,+713.326645E-03
-4.575000E-03,+713.326645E-03
-4.570000E-03,+763.577901E-03
-4.565000E-03,+818.854282E-03
-4.560000E-03,+818.854282E-03
-4.555000E-03,+843.979910E-03
-4.550000E-03,+874.130663E-03
-4.545000E-03,+924.381919E-03
-4.540000E-03,+924.381919E-03
-4.535000E-03,+924.381919E-03
-4.530000E-03,+1.004783928E+00
-4.525000E-03,+1.004783928E+00
-4.520000E-03,+1.034934682E+00
-4.515000E-03,+1.140462319E+00
-4.510000E-03,+1.085185938E+00
-4.505000E-03,+1.165587947E+00
-4.500000E-03,+1.195738700E+00
-4.495000E-03,+1.245989956E+00
-4.490000E-03,+1.301266337E+00
-4.485000E-03,+1.276140709E+00
-4.480000E-03,+1.301266337E+00
-4.475000E-03,+1.301266337E+00
-4.470000E-03,+1.356542719E+00
-4.465000E-03,+1.462070356E+00
-4.460000E-03,+1.381668346E+00
-4.455000E-03,+1.462070356E+00
-4.450000E-03,+1.462070356E+00
-4.445000E-03,+1.567597993E+00
-4.440000E-03,+1.567597993E+00
-4.435000E-03,+1.597748746E+00
-4.430000E-03,+1.673125630E+00
-4.425000E-03,+1.597748746E+00
-4.420000E-03,+1.648000002E+00
-4.415000E-03,+1.728402011E+00
-4.410000E-03,+1.648000002E+00
-4.405000E-03,+1.728402011E+00
-4.400000E-03,+1.728402011E+00
-4.395000E-03,+1.859055276E+00
-4.390000E-03,+1.808804020E+00
-4.385000E-03,+1.833929648E+00
-4.380000E-03,+1.808804020E+00
-4.375000E-03,+1.889206029E+00
-4.370000E-03,+1.808804020E+00
-4.365000E-03,+1.969608039E+00
-4.360000E-03,+1.889206029E+00
-4.355000E-03,+1.889206029E+00
-4.350000E-03,+1.889206029E+00
-4.345000E-03,+1.914331657E+00
-4.340000E-03,+1.914331657E+00
-4.335000E-03,+1.939457285E+00
-4.330000E-03,+1.914331657E+00
-4.325000E-03,+1.914331657E+00
-4.320000E-03,+1.939457285E+00
-4.315000E-03,+1.914331657E+00
-4.310000E-03,+1.969608039E+00
-4.305000E-03,+1.994733667E+00
-4.300000E-03,+1.939457285E+00
-4.295000E-03,+1.969608039E+00
-4.290000E-03,+1.914331657E+00
-4.285000E-03,+1.969608039E+00
-4.280000E-03,+1.914331657E+00
-4.275000E-03,+1.889206029E+00
-4.270000E-03,+1.969608039E+00
-4.265000E-03,+1.939457285E+00
-4.260000E-03,+1.889206029E+00
-4.255000E-03,+1.914331657E+00
-4.250000E-03,+1.914331657E+00
-4.245000E-03,+1.994733667E+00
-4.240000E-03,+1.939457285E+00
-4.235000E-03,+1.889206029E+00
-4.230000E-03,+1.969608039E+00
-4.225000E-03,+1.914331657E+00
-4.220000E-03,+1.939457285E+00
-4.215000E-03,+1.969608039E+00
-4.210000E-03,+1.889206029E+00
-4.205000E-03,+1.889206029E+00
-4.200000E-03,+1.914331657E+00
-4.195000E-03,+1.889206029E+00
-4.190000E-03,+1.969608039E+00
-4.185000E-03,+1.914331657E+00
-4.180000E-03,+1.914331657E+00
-4.175000E-03,+1.939457285E+00
-4.170000E-03,+1.889206029E+00
-4.165000E-03,+1.889206029E+00
-4.160000E-03,+1.914331657E+00
-4.155000E-03,+1.969608039E+00
-4.150000E-03,+1.914331657E+00
-4.145000E-03,+1.969608039E+00
-4.140000E-03,+1.914331657E+00
-4.135000E-03,+1.969608039E+00
-4.130000E-03,+1.969608039E+00
-4.125000E-03,+1.914331657E+00
-4.120000E-03,+1.914331657E+00
-4.115000E-03,+1.889206029E+00
-4.110000E-03,+1.939457285E+00
-4.105000E-03,+1.969608039E+00
-4.100000E-03,+1.939457285E+00
-4.095000E-03,+1.969608039E+00
-4.090000E-03,+1.969608039E+00
-4.085000E-03,+1.889206029E+00
-4.080000E-03,+1.914331657E+00
-4.075000E-03,+1.914331657E+00
-4.070000E-03,+1.889206029E+00
-4.065000E-03,+1.969608039E+00
-4.060000E-03,+1.889206029E+00
-4.055000E-03,+1.833929648E+00
-4.050000E-03,+1.753527639E+00
-4.045000E-03,+1.753527639E+00
-4.040000E-03,+1.673125630E+00
-4.035000E-03,+1.698251258E+00
-4.030000E-03,+1.753527639E+00
-4.025000E-03,+1.648000002E+00
-4.020000E-03,+1.597748746E+00
-4.015000E-03,+1.597748746E+00
-4.010000E-03,+1.462070356E+00
-4.005000E-03,+1.517346737E+00
-4.000000E-03,+1.381668346E+00
-3.995000E-03,+1.381668346E+00
-3.990000E-03,+1.381668346E+00
-3.985000E-03,+1.301266337E+00
-3.980000E-03,+1.165587947E+00
-3.975000E-03,+1.195738700E+00
-3.970000E-03,+1.245989956E+00
-3.965000E-03,+1.140462319E+00
-3.960000E-03,+1.115336691E+00
-3.955000E-03,+1.034934682E+00
-3.950000E-03,+1.004783928E+00
-3.945000E-03,+924.381919E-03
-3.940000E-03,+924.381919E-03
-3.935000E-03,+874.130663E-03
-3.930000E-03,+874.130663E-03
-3.925000E-03,+738.452273E-03
-3.920000E-03,+763.577901E-03
-3.915000E-03,+658.050264E-03
-3.910000E-03,+738.452273E-03
-3.905000E-03,+577.648255E-03
-3.900000E-03,+602.773882E-03
-3.895000E-03,+577.648255E-03
-3.890000E-03,+441.969864E-03
-3.885000E-03,+416.844236E-03
-3.880000E-03,+391.718608E-03
-3.875000E-03,+361.567855E-03
-3.870000E-03,+230.914590E-03
-3.865000E-03,+230.914590E-03
-3.860000E-03,+175.638209E-03
-3.855000E-03,+175.638209E-03
-3.850000E-03,+120.361827E-03
-3.845000E-03,+39.959818E-03
-3.840000E-03,+70.110572E-03
-3.835000E-03,-90.693447E-03
-3.830000E-03,-120.844200E-03
-3.825000E-03,-145.969828E-03
-3.820000E-03,-145.969828E-03
-3.815000E-03,-226.371837E-03
-3.810000E-03,-281.648219E-03
-3.805000E-03,-387.175856E-03
-3.800000E-03,-362.050228E-03
-3.795000E-03,-467.577865E-03
-3.790000E-03,-442.452237E-03
-3.785000E-03,-547.979874E-03
-3.780000E-03,-683.658265E-03
-3.775000E-03,-764.060274E-03
-3.770000E-03,-764.060274E-03
-3.765000E-03,-894.713539E-03
-3.760000E-03,-949.989920E-03
-3.755000E-03,-1.030391929E+00
-3.750000E-03,-1.135919566E+00
-3.745000E-03,-1.191195948E+00
-3.740000E-03,-1.246472329E+00
-3.735000E-03,-1.407276347E+00
-3.730000E-03,-1.432401975E+00
-3.725000E-03,-1.568080366E+00
-3.720000E-03,-1.648482375E+00
-3.715000E-03,-1.754010012E+00
-3.710000E-03,-1.809286393E+00
-3.705000E-03,-1.970090412E+00
-3.700000E-03,-1.970090412E+00
-3.695000E-03,-2.130894430E+00
-3.690000E-03,-2.130894430E+00
-3.685000E-03,-2.211296439E+00
-3.680000E-03,-2.181145686E+00
-3.675000E-03,-2.261547695E+00
-3.670000E-03,-2.261547695E+00
-3.665000E-03,-2.236422067E+00
-3.660000E-03,-2.130894430E+00
-3.655000E-03,-2.236422067E+00
-3.650000E-03,-2.181145686E+00
-3.645000E-03,-2.211296439E+00
-3.640000E-03,-2.291698448E+00
-3.635000E-03,-2.211296439E+00
-3.630000E-03,-2.211296439E+00
-3.625000E-03,-2.156020058E+00
-3.620000E-03,-2.211296439E+00
-3.615000E-03,-2.211296439E+00
-3.610000E-03,-2.130894430E+00
-3.605000E-03,-2.211296439E+00
-3.600000E-03,-2.211296439E+00
-3.595000E-03,-2.211296439E+00
-3.590000E-03,-2.211296439E+00
-3.585000E-03,-2.211296439E+00
-3.580000E-03,-2.211296439E+00
-3.575000E-03,-2.211296439E+00
-3.570000E-03,-2.181145686E+00
-3.565000E-03,-2.236422067E+00
-3.560000E-03,-2.261547695E+00
-3.555000E-03,-2.236422067E+00
-3.550000E-03,-2.291698448E+00
-3.545000E-03,-2.291698448E+00
-3.540000E-03,-2.341949704E+00
-3.535000E-03,-2.341949704E+00
-3.530000E-03,-2.372100458E+00
-3.525000E-03,-2.372100458E+00
-3.520000E-03,-2.422351713E+00
-3.515000E-03,-2.372100458E+00
-3.510000E-03,-2.397226085E+00
-3.505000E-03,-2.372100458E+00
-3.500000E-03,-2.341949704E+00
-3.495000E-03,-2.211296439E+00
-3.490000E-03,-2.181145686E+00
-3.485000E-03,-2.261547695E+00
-3.480000E-03,-2.156020058E+00
-3.475000E-03,-2.211296439E+00
-3.470000E-03,-2.075618049E+00
-3.465000E-03,-2.181145686E+00
-3.460000E-03,-2.050492421E+00
-3.455000E-03,-2.130894430E+00
-3.450000E-03,-1.970090412E+00
-3.445000E-03,-2.020341667E+00
-3.440000E-03,-1.939939658E+00
-3.435000E-03,-1.859537649E+00
-3.430000E-03,-1.889688402E+00
-3.425000E-03,-1.834412021E+00
-3.420000E-03,-1.859537649E+00
-3.415000E-03,-1.754010012E+00
-3.410000E-03,-1.728884384E+00
-3.405000E-03,-1.754010012E+00
-3.400000E-03,-1.648482375E+00
-3.395000E-03,-1.673608003E+00
-3.390000E-03,-1.698733631E+00
-3.385000E-03,-1.618331621E+00
-3.380000E-03,-1.618331621E+00
-3.375000E-03,-1.568080366E+00
-3.370000E-03,-1.537929612E+00
-3.365000E-03,-1.537929612E+00
-3.360000E-03,-1.432401975E+00
-3.355000E-03,-1.457527603E+00
-3.350000E-03,-1.407276347E+00
-3.345000E-03,-1.377125594E+00
-3.340000E-03,-1.326874338E+00
-3.335000E-03,-1.326874338E+00
-3.330000E-03,-1.271597957E+00
-3.325000E-03,-1.271597957E+00
-3.320000E-03,-1.246472329E+00
-3.315000E-03,-1.191195948E+00
-3.310000E-03,-1.191195948E+00
-3.305000E-03,-1.135919566E+00
-3.300000E-03,-1.030391929E+00
-3.295000E-03,-1.085668311E+00
-3.290000E-03,-1.055517557E+00
-3.285000E-03,-1.030391929E+00
-3.280000E-03,-949.989920E-03
-3.275000E-03,-1.005266301E+00
-3.270000E-03,-924.864292E-03
-3.265000E-03,-869.587911E-03
-3.260000E-03,-894.713539E-03
-3.255000E-03,-789.185902E-03
-3.250000E-03,-814.311530E-03
-3.245000E-03,-733.909520E-03
-3.240000E-03,-764.060274E-03
-3.235000E-03,-683.658265E-03
-3.230000E-03,-628.381883E-03
-3.225000E-03,-628.381883E-03
-3.220000E-03,-683.658265E-03
-3.215000E-03,-603.256255E-03
-3.210000E-03,-628.381883E-03
-3.205000E-03,-522.854246E-03
-3.200000E-03,-573.105502E-03
-3.195000E-03,-492.703493E-03
-3.190000E-03,-442.452237E-03
-3.185000E-03,-412.301484E-03
-3.180000E-03,-362.050228E-03
-3.175000E-03,-331.899474E-03
-3.170000E-03,-387.175856E-03
-3.165000E-03,-306.773847E-03
-3.160000E-03,-281.648219E-03
-3.155000E-03,-201.246209E-03
-3.150000E-03,-201.246209E-03
-3.145000E-03,-145.969828E-03
-3.140000E-03,-120.844200E-03
-3.135000E-03,-40.442191E-03
-3.130000E-03,-120.844200E-03
-3.125000E-03,-10.291438E-03
-3.120000E-03,-65.567819E-03
-3.115000E-03,-10.291438E-03
-3.110000E-03,+95.236199E-03
-3.105000E-03,+95.236199E-03
-3.100000E-03,+120.361827E-03
-3.095000E-03,+120.361827E-03
-3.090000E-03,+200.763837E-03
-3.085000E-03,+200.763837E-03
-3.080000E-03,+200.763837E-03
-3.075000E-03,+281.165846E-03
-3.070000E-03,+336.442227E-03
-3.065000E-03,+281.165846E-03
-3.060000E-03,+336.442227E-03
-3.055000E-03,+391.718608E-03
-3.050000E-03,+391.718608E-03
-3.045000E-03,+441.969864E-03
-3.040000E-03,+472.120618E-03
-3.035000E-03,+472.120618E-03
-3.030000E-03,+522.371873E-03
-3.025000E-03,+632.924636E-03
-3.020000E-03,+602.773882E-03
-3.015000E-03,+602.773882E-03
-3.010000E-03,+683.175892E-03
-3.005000E-03,+683.175892E-03
-3.000000E-03,+713.326645E-03
-2.995000E-03,+713.326645E-03
-2.990000E-03,+763.577901E-03
-2.985000E-03,+818.854282E-03
-2.980000E-03,+713.326645E-03
-2.975000E-03,+899.256291E-03
-2.970000E-03,+899.256291E-03
-2.965000E-03,+979.658301E-03
-2.960000E-03,+954.532673E-03
-2.955000E-03,+924.381919E-03
-2.950000E-03,+1.004783928E+00
-2.945000E-03,+1.060060310E+00
-2.940000E-03,+1.115336691E+00
-2.935000E-03,+1.115336691E+00
-2.930000E-03,+1.115336691E+00
-2.925000E-03,+1.195738700E+00
-2.920000E-03,+1.195738700E+00
-2.915000E-03,+1.220864328E+00
-2.910000E-03,+1.301266337E+00
-2.905000E-03,+1.245989956E+00
-2.900000E-03,+1.245989956E+00
-2.895000E-03,+1.381668346E+00
-2.890000E-03,+1.356542719E+00
-2.885000E-03,+1.356542719E+00
-2.880000E-03,+1.406793974E+00
-2.875000E-03,+1.487195984E+00
-2.870000E-03,+1.406793974E+00
-2.865000E-03,+1.487195984E+00
-2.860000E-03,+1.542472365E+00
-2.855000E-03,+1.542472365E+00
-2.850000E-03,+1.673125630E+00
-2.845000E-03,+1.648000002E+00
-2.840000E-03,+1.698251258E+00
-2.835000E-03,+1.648000002E+00
-2.830000E-03,+1.698251258E+00
-2.825000E-03,+1.673125630E+00
-2.820000E-03,+1.753527639E+00
-2.815000E-03,+1.808804020E+00
-2.810000E-03,+1.859055276E+00
-2.805000E-03,+1.808804020E+00
-2.800000E-03,+1.889206029E+00
-2.795000E-03,+1.889206029E+00
-2.790000E-03,+1.859055276E+00
-2.785000E-03,+1.889206029E+00
-2.780000E-03,+1.833929648E+00
-2.775000E-03,+1.939457285E+00
-2.770000E-03,+1.939457285E+00
-2.765000E-03,+1.939457285E+00
-2.760000E-03,+1.969608039E+00
-2.755000E-03,+1.889206029E+00
-2.750000E-03,+1.914331657E+00
-2.745000E-03,+1.914331657E+00
-2.740000E-03,+1.939457285E+00
-2.735000E-03,+1.914331657E+00
-2.730000E-03,+1.939457285E+00
-2.725000E-03,+2.019859294E+00
-2.720000E-03,+1.939457285E+00
-2.715000E-03,+1.939457285E+00
-2.710000E-03,+1.914331657E+00
-2.705000E-03,+1.939457285E+00
-2.700000E-03,+1.939457285E+00
-2.695000E-03,+1.889206029E+00
-2.690000E-03,+1.914331657E+00
-2.685000E-03,+1.939457285E+00
-2.680000E-03,+1.914331657E+00
-2.675000E-03,+1.889206029E+00
-2.670000E-03,+1.914331657E+00
-2.665000E-03,+1.969608039E+00
-2.660000E-03,+1.969608039E+00
-2.655000E-03,+1.939457285E+00
-2.650000E-03,+1.969608039E+00
-2.645000E-03,+1.889206029E+00
-2.640000E-03,+1.939457285E+00
-2.635000E-03,+1.914331657E+00
-2.630000E-03,+1.969608039E+00
-2.625000E-03,+1.994733667E+00
-2.620000E-03,+1.914331657E+00
-2.615000E-03,+1.914331657E+00
-2.610000E-03,+1.994733667E+00
-2.605000E-03,+1.969608039E+00
-2.600000E-03,+1.914331657E+00
-2.595000E-03,+1.939457285E+00
-2.590000E-03,+1.969608039E+00
-2.585000E-03,+1.889206029E+00
-2.580000E-03,+1.889206029E+00
-2.575000E-03,+1.914331657E+00
-2.570000E-03,+1.939457285E+00
-2.565000E-03,+1.914331657E+00
-2.560000E-03,+2.019859294E+00
-2.555000E-03,+1.889206029E+00
-2.550000E-03,+1.969608039E+00
-2.545000E-03,+1.939457285E+00
-2.540000E-03,+1.939457285E+00
-2.535000E-03,+1.889206029E+00
-2.530000E-03,+1.969608039E+00
-2.525000E-03,+1.889206029E+00
-2.520000E-03,+1.969608039E+00
-2.515000E-03,+1.889206029E+00
-2.510000E-03,+1.969608039E+00
-2.505000E-03,+1.939457285E+00
-2.500000E-03,+1.914331657E+00
-2.495000E-03,+1.939457285E+00
-2.490000E-03,+1.833929648E+00
-2.485000E-03,+1.914331657E+00
-2.480000E-03,+1.889206029E+00
-2.475000E-03,+1.859055276E+00
-2.470000E-03,+1.753527639E+00
-2.465000E-03,+1.808804020E+00
-2.460000E-03,+1.698251258E+00
-2.455000E-03,+1.778653267E+00
-2.450000E-03,+1.648000002E+00
-2.445000E-03,+1.648000002E+00
-2.440000E-03,+1.567597993E+00
-2.435000E-03,+1.567597993E+00
-2.430000E-03,+1.542472365E+00
-2.425000E-03,+1.487195984E+00
-2.420000E-03,+1.406793974E+00
-2.415000E-03,+1.406793974E+00
-2.410000E-03,+1.356542719E+00
-2.405000E-03,+1.406793974E+00
-2.400000E-03,+1.326391965E+00
-2.395000E-03,+1.165587947E+00
-2.390000E-03,+1.140462319E+00
-2.385000E-03,+1.115336691E+00
-2.380000E-03,+1.085185938E+00
-2.375000E-03,+1.034934682E+00
-2.370000E-03,+924.381919E-03
-2.365000E-03,+1.004783928E+00
-2.360000E-03,+954.532673E-03
-2.355000E-03,+843.979910E-03
-2.350000E-03,+843.979910E-03
-2.345000E-03,+818.854282E-03
-2.340000E-03,+713.326645E-03
-2.335000E-03,+658.050264E-03
-2.330000E-03,+658.050264E-03
-2.325000E-03,+602.773882E-03
-2.320000E-03,+552.522627E-03
-2.315000E-03,+522.371873E-03
-2.310000E-03,+472.120618E-03
-2.305000E-03,+441.969864E-03
-2.300000E-03,+361.567855E-03
-2.295000E-03,+361.567855E-03
-2.290000E-03,+281.165846E-03
-2.285000E-03,+256.040218E-03
-2.280000E-03,+230.914590E-03
-2.275000E-03,+175.638209E-03
-2.270000E-03,+70.110572E-03
-2.265000E-03,+95.236199E-03
-2.260000E-03,+95.236199E-03
-2.255000E-03,-40.442191E-03
-2.250000E-03,-90.693447E-03
-2.245000E-03,-120.844200E-03
-2.240000E-03,-120.844200E-03
-2.235000E-03,-281.648219E-03
-2.230000E-03,-281.648219E-03
-2.225000E-03,-362.050228E-03
-2.220000E-03,-387.175856E-03
-2.215000E-03,-492.703493E-03
-2.210000E-03,-522.854246E-03
-2.205000E-03,-522.854246E-03
-2.200000E-03,-603.256255E-03
-2.195000E-03,-764.060274E-03
-2.190000E-03,-789.185902E-03
-2.185000E-03,-869.587911E-03
-2.180000E-03,-924.864292E-03
-2.175000E-03,-1.005266301E+00
-2.170000E-03,-1.166070320E+00
-2.165000E-03,-1.166070320E+00
-2.160000E-03,-1.296723585E+00
-2.155000E-03,-1.296723585E+00
-2.150000E-03,-1.457527603E+00
-2.145000E-03,-1.568080366E+00
-2.140000E-03,-1.648482375E+00
-2.135000E-03,-1.728884384E+00
-2.130000E-03,-1.809286393E+00
-2.125000E-03,-1.889688402E+00
-2.120000E-03,-1.995216039E+00
-2.115000E-03,-2.050492421E+00
-2.110000E-03,-2.130894430E+00
-2.105000E-03,-2.236422067E+00
-2.100000E-03,-2.211296439E+00
-2.095000E-03,-2.236422067E+00
-2.090000E-03,-2.211296439E+00
-2.085000E-03,-2.236422067E+00
-2.080000E-03,-2.261547695E+00
-2.075000E-03,-2.211296439E+00
-2.070000E-03,-2.130894430E+00
-2.065000E-03,-2.211296439E+00
-2.060000E-03,-2.211296439E+00
-2.055000E-03,-2.181145686E+00
-2.050000E-03,-2.211296439E+00
-2.045000E-03,-2.236422067E+00
-2.040000E-03,-2.211296439E+00
-2.035000E-03,-2.181145686E+00
-2.030000E-03,-2.211296439E+00
-2.025000E-03,-2.211296439E+00
-2.020000E-03,-2.130894430E+00
-2.015000E-03,-2.211296439E+00
-2.010000E-03,-2.156020058E+00
-2.005000E-03,-2.211296439E+00
-2.000000E-03,-2.211296439E+00
-1.995000E-03,-2.211296439E+00
-1.990000E-03,-2.291698448E+00
-1.985000E-03,-2.211296439E+00
-1.980000E-03,-2.236422067E+00
-1.975000E-03,-2.291698448E+00
-1.970000E-03,-2.261547695E+00
-1.965000E-03,-2.211296439E+00
-1.960000E-03,-2.291698448E+00
-1.955000E-03,-2.372100458E+00
-1.950000E-03,-2.341949704E+00
-1.945000E-03,-2.397226085E+00
-1.940000E-03,-2.422351713E+00
-1.935000E-03,-2.397226085E+00
-1.930000E-03,-2.372100458E+00
-1.925000E-03,-2.316824076E+00
-1.920000E-03,-2.291698448E+00
-1.915000E-03,-2.261547695E+00
-1.910000E-03,-2.211296439E+00
-1.905000E-03,-2.211296439E+00
-1.900000E-03,-2.156020058E+00
-1.895000E-03,-2.130894430E+00
-1.890000E-03,-2.156020058E+00
-1.885000E-03,-1.995216039E+00
-1.880000E-03,-2.050492421E+00
-1.875000E-03,-2.050492421E+00
-1.870000E-03,-1.970090412E+00
-1.865000E-03,-1.914814030E+00
-1.860000E-03,-1.970090412E+00
-1.855000E-03,-1.859537649E+00
-1.850000E-03,-1.889688402E+00
-1.845000E-03,-1.859537649E+00
-1.840000E-03,-1.809286393E+00
-1.835000E-03,-1.779135640E+00
-1.830000E-03,-1.754010012E+00
-1.825000E-03,-1.754010012E+00
-1.820000E-03,-1.728884384E+00
-1.815000E-03,-1.618331621E+00
-1.810000E-03,-1.673608003E+00
-1.805000E-03,-1.593205994E+00
-1.800000E-03,-1.673608003E+00
-1.795000E-03,-1.568080366E+00
-1.790000E-03,-1.487678356E+00
-1.785000E-03,-1.537929612E+00
-1.780000E-03,-1.432401975E+00
-1.775000E-03,-1.487678356E+00
-1.770000E-03,-1.432401975E+00
-1.765000E-03,-1.326874338E+00
-1.760000E-03,-1.326874338E+00
-1.755000E-03,-1.326874338E+00
-1.750000E-03,-1.271597957E+00
-1.745000E-03,-1.326874338E+00
-1.740000E-03,-1.216321575E+00
-1.735000E-03,-1.246472329E+00
-1.730000E-03,-1.246472329E+00
-1.725000E-03,-1.166070320E+00
-1.720000E-03,-1.030391929E+00
-1.715000E-03,-1.166070320E+00
-1.710000E-03,-1.005266301E+00
-1.705000E-03,-1.005266301E+00
-1.700000E-03,-949.989920E-03
-1.695000E-03,-975.115548E-03
-1.690000E-03,-949.989920E-03
-1.685000E-03,-869.587911E-03
-1.680000E-03,-844.462283E-03
-1.675000E-03,-844.462283E-03
-1.670000E-03,-789.185902E-03
-1.665000E-03,-789.185902E-03
-1.660000E-03,-764.060274E-03
-1.655000E-03,-708.783892E-03
-1.650000E-03,-683.658265E-03
-1.645000E-03,-653.507511E-03
-1.640000E-03,-573.105502E-03
-1.635000E-03,-547.979874E-03
-1.630000E-03,-522.854246E-03
-1.625000E-03,-522.854246E-03
-1.620000E-03,-522.854246E-03
-1.615000E-03,-492.703493E-03
-1.610000E-03,-442.452237E-03
-1.605000E-03,-362.050228E-03
-1.600000E-03,-362.050228E-03
-1.595000E-03,-362.050228E-03
-1.590000E-03,-281.648219E-03
-1.585000E-03,-306.773847E-03
-1.580000E-03,-201.246209E-03
-1.575000E-03,-251.497465E-03
-1.570000E-03,-281.648219E-03
-1.565000E-03,-226.371837E-03
-1.560000E-03,-145.969828E-03
-1.555000E-03,-145.969828E-03
-1.550000E-03,-90.693447E-03
-1.545000E-03,-40.442191E-03
-1.540000E-03,-40.442191E-03
-1.535000E-03,-10.291438E-03
-1.530000E-03,+39.959818E-03
-1.525000E-03,+95.236199E-03
-1.520000E-03,+95.236199E-03
-1.515000E-03,+120.361827E-03
-1.510000E-03,+175.638209E-03
-1.505000E-03,+200.763837E-03
-1.500000E-03,+281.165846E-03
-1.495000E-03,+256.040218E-03
-1.490000E-03,+281.165846E-03
-1.485000E-03,+361.567855E-03
-1.480000E-03,+311.316599E-03
-1.475000E-03,+336.442227E-03
-1.470000E-03,+441.969864E-03
-1.465000E-03,+441.969864E-03
-1.460000E-03,+391.718608E-03
-1.455000E-03,+497.246245E-03
-1.450000E-03,+522.371873E-03
-1.445000E-03,+577.648255E-03
-1.440000E-03,+632.924636E-03
-1.435000E-03,+602.773882E-03
-1.430000E-03,+602.773882E-03
-1.425000E-03,+683.175892E-03
-1.420000E-03,+658.050264E-03
-1.415000E-03,+713.326645E-03
-1.410000E-03,+683.175892E-03
-1.405000E-03,+738.452273E-03
-1.400000E-03,+793.728654E-03
-1.395000E-03,+843.979910E-03
-1.390000E-03,+843.979910E-03
-1.385000E-03,+874.130663E-03
-1.380000E-03,+954.532673E-03
-1.375000E-03,+979.658301E-03
-1.370000E-03,+979.658301E-03
-1.365000E-03,+1.085185938E+00
-1.360000E-03,+1.085185938E+00
-1.355000E-03,+1.115336691E+00
-1.350000E-03,+1.165587947E+00
-1.345000E-03,+1.165587947E+00
-1.340000E-03,+1.245989956E+00
-1.335000E-03,+1.220864328E+00
-1.330000E-03,+1.220864328E+00
-1.325000E-03,+1.276140709E+00
-1.320000E-03,+1.301266337E+00
-1.315000E-03,+1.381668346E+00
-1.310000E-03,+1.356542719E+00
-1.305000E-03,+1.381668346E+00
-1.300000E-03,+1.462070356E+00
-1.295000E-03,+1.462070356E+00
-1.290000E-03,+1.517346737E+00
-1.285000E-03,+1.542472365E+00
-1.280000E-03,+1.487195984E+00
-1.275000E-03,+1.487195984E+00
-1.270000E-03,+1.622874374E+00
-1.265000E-03,+1.698251258E+00
-1.260000E-03,+1.698251258E+00
-1.255000E-03,+1.698251258E+00
-1.250000E-03,+1.673125630E+00
-1.245000E-03,+1.778653267E+00
-1.240000E-03,+1.808804020E+00
-1.235000E-03,+1.808804020E+00
-1.230000E-03,+1.808804020E+00
-1.225000E-03,+1.808804020E+00
-1.220000E-03,+1.808804020E+00
-1.215000E-03,+1.859055276E+00
-1.210000E-03,+1.939457285E+00
-1.205000E-03,+1.914331657E+00
-1.200000E-03,+1.889206029E+00
-1.195000E-03,+1.914331657E+00
-1.190000E-03,+1.889206029E+00
-1.185000E-03,+1.939457285E+00
-1.180000E-03,+1.939457285E+00
-1.175000E-03,+1.889206029E+00
-1.170000E-03,+1.889206029E+00
-1.165000E-03,+1.889206029E+00
-1.160000E-03,+1.939457285E+00
-1.155000E-03,+1.914331657E+00
-1.150000E-03,+1.939457285E+00
-1.145000E-03,+1.969608039E+00
-1.140000E-03,+1.889206029E+00
-1.135000E-03,+1.969608039E+00
-1.130000E-03,+1.914331657E+00
-1.125000E-03,+1.969608039E+00
-1.120000E-03,+1.969608039E+00
-1.115000E-03,+1.859055276E+00
-1.110000E-03,+1.914331657E+00
-1.105000E-03,+1.969608039E+00
-1.100000E-03,+1.889206029E+00
-1.095000E-03,+1.939457285E+00
-1.090000E-03,+1.939457285E+00
-1.085000E-03,+1.914331657E+00
-1.080000E-03,+1.914331657E+00
-1.075000E-03,+1.969608039E+00
-1.070000E-03,+1.889206029E+00
-1.065000E-03,+1.939457285E+00
-1.060000E-03,+1.914331657E+00
-1.055000E-03,+1.914331657E+00
-1.050000E-03,+1.914331657E+00
-1.045000E-03,+1.939457285E+00
-1.040000E-03,+1.889206029E+00
-1.035000E-03,+1.939457285E+00
-1.030000E-03,+1.969608039E+00
-1.025000E-03,+1.914331657E+00
-1.020000E-03,+1.969608039E+00
-1.015000E-03,+1.969608039E+00
-1.010000E-03,+1.939457285E+00
-1.005000E-03,+1.939457285E+00
-1.000000E-03,+1.914331657E+00
-995.000E-06,+1.914331657E+00
-990.000E-06,+1.969608039E+00
-985.000E-06,+1.914331657E+00
-980.000E-06,+1.939457285E+00
-975.000E-06,+1.969608039E+00
-970.000E-06,+1.914331657E+00
-965.000E-06,+1.939457285E+00
-960.000E-06,+1.939457285E+00
-955.000E-06,+1.889206029E+00
-950.000E-06,+1.994733667E+00
-945.000E-06,+1.969608039E+00
-940.000E-06,+1.939457285E+00
-935.000E-06,+1.889206029E+00
-930.000E-06,+1.914331657E+00
-925.000E-06,+1.939457285E+00
-920.000E-06,+1.889206029E+00
-915.000E-06,+2.019859294E+00
-910.000E-06,+1.939457285E+00
-905.000E-06,+1.889206029E+00
-900.000E-06,+1.889206029E+00
-895.000E-06,+1.833929648E+00
-890.000E-06,+1.778653267E+00
-885.000E-06,+1.808804020E+00
-880.000E-06,+1.728402011E+00
-875.000E-06,+1.778653267E+00
-870.000E-06,+1.648000002E+00
-865.000E-06,+1.673125630E+00
-860.000E-06,+1.567597993E+00
-855.000E-06,+1.567597993E+00
-850.000E-06,+1.487195984E+00
-845.000E-06,+1.487195984E+00
-840.000E-06,+1.487195984E+00
-835.000E-06,+1.326391965E+00
-830.000E-06,+1.406793974E+00
-825.000E-06,+1.245989956E+00
-820.000E-06,+1.220864328E+00
-815.000E-06,+1.245989956E+00
-810.000E-06,+1.220864328E+00
-805.000E-06,+1.115336691E+00
-800.000E-06,+1.085185938E+00
-795.000E-06,+1.034934682E+00
-790.000E-06,+979.658301E-03
-785.000E-06,+1.004783928E+00
-780.000E-06,+924.381919E-03
-775.000E-06,+924.381919E-03
-770.000E-06,+843.979910E-03
-765.000E-06,+763.577901E-03
-760.000E-06,+738.452273E-03
-755.000E-06,+738.452273E-03
-750.000E-06,+632.924636E-03
-745.000E-06,+577.648255E-03
-740.000E-06,+522.371873E-03
-735.000E-06,+522.371873E-03
-730.000E-06,+472.120618E-03
-725.000E-06,+441.969864E-03
-720.000E-06,+416.844236E-03
-715.000E-06,+281.165846E-03
-710.000E-06,+281.165846E-03
-705.000E-06,+230.914590E-03
-700.000E-06,+200.763837E-03
-695.000E-06,+150.512581E-03
-690.000E-06,+70.110572E-03
-685.000E-06,+95.236199E-03
-680.000E-06,-10.291438E-03
-675.000E-06,-90.693447E-03
-670.000E-06,-40.442191E-03
-665.000E-06,-120.844200E-03
-660.000E-06,-145.969828E-03
-655.000E-06,-201.246209E-03
-650.000E-06,-331.899474E-03
-645.000E-06,-331.899474E-03
-640.000E-06,-362.050228E-03
-635.000E-06,-467.577865E-03
-630.000E-06,-467.577865E-03
-625.000E-06,-547.979874E-03
-620.000E-06,-603.256255E-03
-615.000E-06,-708.783892E-03
-610.000E-06,-733.909520E-03
-605.000E-06,-844.462283E-03
-600.000E-06,-975.115548E-03
-595.000E-06,-1.005266301E+00
-590.000E-06,-1.085668311E+00
-585.000E-06,-1.216321575E+00
-580.000E-06,-1.296723585E+00
-575.000E-06,-1.377125594E+00
-570.000E-06,-1.512803984E+00
-565.000E-06,-1.593205994E+00
-560.000E-06,-1.698733631E+00
-555.000E-06,-1.698733631E+00
-550.000E-06,-1.889688402E+00
-545.000E-06,-1.939939658E+00
-540.000E-06,-1.995216039E+00
-535.000E-06,-2.075618049E+00
-530.000E-06,-2.130894430E+00
-525.000E-06,-2.211296439E+00
-520.000E-06,-2.156020058E+00
-515.000E-06,-2.291698448E+00
-510.000E-06,-2.236422067E+00
-505.000E-06,-2.211296439E+00
-500.000E-06,-2.181145686E+00
-495.000E-06,-2.211296439E+00
-490.000E-06,-2.211296439E+00
-485.000E-06,-2.261547695E+00
-480.000E-06,-2.211296439E+00
-475.000E-06,-2.211296439E+00
-470.000E-06,-2.236422067E+00
-465.000E-06,-2.181145686E+00
-460.000E-06,-2.211296439E+00
-455.000E-06,-2.211296439E+00
-450.000E-06,-2.211296439E+00
-445.000E-06,-2.156020058E+00
-440.000E-06,-2.236422067E+00
-435.000E-06,-2.211296439E+00
-430.000E-06,-2.211296439E+00
-425.000E-06,-2.211296439E+00
-420.000E-06,-2.211296439E+00
-415.000E-06,-2.211296439E+00
-410.000E-06,-2.236422067E+00
-405.000E-06,-2.236422067E+00
-400.000E-06,-2.236422067E+00
-395.000E-06,-2.211296439E+00
-390.000E-06,-2.291698448E+00
-385.000E-06,-2.291698448E+00
-380.000E-06,-2.316824076E+00
-375.000E-06,-2.341949704E+00
-370.000E-06,-2.372100458E+00
-365.000E-06,-2.422351713E+00
-360.000E-06,-2.372100458E+00
-355.000E-06,-2.422351713E+00
-350.000E-06,-2.372100458E+00
-345.000E-06,-2.341949704E+00
-340.000E-06,-2.291698448E+00
-335.000E-06,-2.236422067E+00
-330.000E-06,-2.261547695E+00
-325.000E-06,-2.236422067E+00
-320.000E-06,-2.130894430E+00
-315.000E-06,-2.130894430E+00
-310.000E-06,-2.130894430E+00
-305.000E-06,-2.075618049E+00
-300.000E-06,-2.075618049E+00
-295.000E-06,-2.100743677E+00
-290.000E-06,-2.020341667E+00
-285.000E-06,-1.970090412E+00
-280.000E-06,-1.939939658E+00
-275.000E-06,-1.914814030E+00
-270.000E-06,-1.834412021E+00
-265.000E-06,-1.809286393E+00
-260.000E-06,-1.834412021E+00
-255.000E-06,-1.809286393E+00
-250.000E-06,-1.809286393E+00
-245.000E-06,-1.673608003E+00
-240.000E-06,-1.618331621E+00
-235.000E-06,-1.698733631E+00
-230.000E-06,-1.618331621E+00
-225.000E-06,-1.568080366E+00
-220.000E-06,-1.618331621E+00
-215.000E-06,-1.568080366E+00
-210.000E-06,-1.568080366E+00
-205.000E-06,-1.512803984E+00
-200.000E-06,-1.487678356E+00
-195.000E-06,-1.407276347E+00
-190.000E-06,-1.432401975E+00
-185.000E-06,-1.432401975E+00
-180.000E-06,-1.377125594E+00
-175.000E-06,-1.407276347E+00
-170.000E-06,-1.246472329E+00
-165.000E-06,-1.271597957E+00
-160.000E-06,-1.216321575E+00
-155.000E-06,-1.216321575E+00
-150.000E-06,-1.191195948E+00
-145.000E-06,-1.135919566E+00
-140.000E-06,-1.135919566E+00
-135.000E-06,-1.030391929E+00
-130.000E-06,-1.085668311E+00
-125.000E-06,-1.030391929E+00
-120.000E-06,-1.005266301E+00
-115.000E-06,-1.055517557E+00
-110.000E-06,-869.587911E-03
-105.000E-06,-924.864292E-03
-100.000E-06,-924.864292E-03
-95.000E-06,-894.713539E-03
-90.000E-06,-814.311530E-03
-85.000E-06,-764.060274E-03
-80.000E-06,-628.381883E-03
-75.000E-06,-708.783892E-03
-70.000E-06,-708.783892E-03
-65.000E-06,-628.381883E-03
-60.000E-06,-653.507511E-03
-55.000E-06,-603.256255E-03
-50.000E-06,-573.105502E-03
-45.000E-06,-522.854246E-03
-40.000E-06,-547.979874E-03
-35.000E-06,-467.577865E-03
-30.000E-06,-442.452237E-03
-25.000E-06,-442.452237E-03
-20.000E-06,-362.050228E-03
-15.000E-06,-362.050228E-03
-10.000E-06,-362.050228E-03
-5.000E-06,-281.648219E-03
-0.0E+00,-281.648219E-03
+5.000E-06,-251.497465E-03
+10.000E-06,-171.095456E-03
+15.000E-06,-145.969828E-03
+20.000E-06,-145.969828E-03
+25.000E-06,-120.844200E-03
+30.000E-06,-120.844200E-03
+35.000E-06,-40.442191E-03
+40.000E-06,-10.291438E-03
+45.000E-06,-10.291438E-03
+50.000E-06,+95.236199E-03
+55.000E-06,+70.110572E-03
+60.000E-06,+120.361827E-03
+65.000E-06,+175.638209E-03
+70.000E-06,+200.763837E-03
+75.000E-06,+175.638209E-03
+80.000E-06,+150.512581E-03
+85.000E-06,+281.165846E-03
+90.000E-06,+281.165846E-03
+95.000E-06,+311.316599E-03
+100.000E-06,+416.844236E-03
+105.000E-06,+391.718608E-03
+110.000E-06,+441.969864E-03
+115.000E-06,+441.969864E-03
+120.000E-06,+416.844236E-03
+125.000E-06,+497.246245E-03
+130.000E-06,+522.371873E-03
+135.000E-06,+552.522627E-03
+140.000E-06,+577.648255E-03
+145.000E-06,+632.924636E-03
+150.000E-06,+713.326645E-03
+155.000E-06,+658.050264E-03
+160.000E-06,+683.175892E-03
+165.000E-06,+763.577901E-03
+170.000E-06,+793.728654E-03
+175.000E-06,+843.979910E-03
+180.000E-06,+874.130663E-03
+185.000E-06,+843.979910E-03
+190.000E-06,+899.256291E-03
+195.000E-06,+979.658301E-03
+200.000E-06,+979.658301E-03
+205.000E-06,+979.658301E-03
+210.000E-06,+1.004783928E+00
+215.000E-06,+1.034934682E+00
+220.000E-06,+1.085185938E+00
+225.000E-06,+1.140462319E+00
+230.000E-06,+1.115336691E+00
+235.000E-06,+1.165587947E+00
+240.000E-06,+1.220864328E+00
+245.000E-06,+1.195738700E+00
+250.000E-06,+1.245989956E+00
+255.000E-06,+1.276140709E+00
+260.000E-06,+1.301266337E+00
+265.000E-06,+1.381668346E+00
+270.000E-06,+1.381668346E+00
+275.000E-06,+1.406793974E+00
+280.000E-06,+1.381668346E+00
+285.000E-06,+1.462070356E+00
+290.000E-06,+1.487195984E+00
+295.000E-06,+1.487195984E+00
+300.000E-06,+1.567597993E+00
+305.000E-06,+1.542472365E+00
+310.000E-06,+1.622874374E+00
+315.000E-06,+1.648000002E+00
+320.000E-06,+1.648000002E+00
+325.000E-06,+1.728402011E+00
+330.000E-06,+1.728402011E+00
+335.000E-06,+1.698251258E+00
+340.000E-06,+1.728402011E+00
+345.000E-06,+1.753527639E+00
+350.000E-06,+1.753527639E+00
+355.000E-06,+1.833929648E+00
+360.000E-06,+1.808804020E+00
+365.000E-06,+1.833929648E+00
+370.000E-06,+1.914331657E+00
+375.000E-06,+1.889206029E+00
+380.000E-06,+1.939457285E+00
+385.000E-06,+1.889206029E+00
+390.000E-06,+1.939457285E+00
+395.000E-06,+1.914331657E+00
+400.000E-06,+1.914331657E+00
+405.000E-06,+1.889206029E+00
+410.000E-06,+1.914331657E+00
+415.000E-06,+1.914331657E+00
+420.000E-06,+1.969608039E+00
+425.000E-06,+1.969608039E+00
+430.000E-06,+1.914331657E+00
+435.000E-06,+1.939457285E+00
+440.000E-06,+1.889206029E+00
+445.000E-06,+1.914331657E+00
+450.000E-06,+1.914331657E+00
+455.000E-06,+1.939457285E+00
+460.000E-06,+1.939457285E+00
+465.000E-06,+1.969608039E+00
+470.000E-06,+1.969608039E+00
+475.000E-06,+1.969608039E+00
+480.000E-06,+1.939457285E+00
+485.000E-06,+1.969608039E+00
+490.000E-06,+1.939457285E+00
+495.000E-06,+1.914331657E+00
+500.000E-06,+1.969608039E+00
+505.000E-06,+1.914331657E+00
+510.000E-06,+1.994733667E+00
+515.000E-06,+1.914331657E+00
+520.000E-06,+1.889206029E+00
+525.000E-06,+1.889206029E+00
+530.000E-06,+1.889206029E+00
+535.000E-06,+1.939457285E+00
+540.000E-06,+1.914331657E+00
+545.000E-06,+1.969608039E+00
+550.000E-06,+1.914331657E+00
+555.000E-06,+1.939457285E+00
+560.000E-06,+1.939457285E+00
+565.000E-06,+1.889206029E+00
+570.000E-06,+1.914331657E+00
+575.000E-06,+1.969608039E+00
+580.000E-06,+1.914331657E+00
+585.000E-06,+1.914331657E+00
+590.000E-06,+1.969608039E+00
+595.000E-06,+1.939457285E+00
+600.000E-06,+1.969608039E+00
+605.000E-06,+1.889206029E+00
+610.000E-06,+1.939457285E+00
+615.000E-06,+1.994733667E+00
+620.000E-06,+1.969608039E+00
+625.000E-06,+1.969608039E+00
+630.000E-06,+1.969608039E+00
+635.000E-06,+1.969608039E+00
+640.000E-06,+1.969608039E+00
+645.000E-06,+1.939457285E+00
+650.000E-06,+1.939457285E+00
+655.000E-06,+1.914331657E+00
+660.000E-06,+1.969608039E+00
+665.000E-06,+1.914331657E+00
+670.000E-06,+1.939457285E+00
+675.000E-06,+1.859055276E+00
+680.000E-06,+1.859055276E+00
+685.000E-06,+1.889206029E+00
+690.000E-06,+1.808804020E+00
+695.000E-06,+1.753527639E+00
+700.000E-06,+1.728402011E+00
+705.000E-06,+1.698251258E+00
+710.000E-06,+1.597748746E+00
+715.000E-06,+1.648000002E+00
+720.000E-06,+1.567597993E+00
+725.000E-06,+1.517346737E+00
+730.000E-06,+1.542472365E+00
+735.000E-06,+1.487195984E+00
+740.000E-06,+1.406793974E+00
+745.000E-06,+1.406793974E+00
+750.000E-06,+1.326391965E+00
+755.000E-06,+1.276140709E+00
+760.000E-06,+1.220864328E+00
+765.000E-06,+1.245989956E+00
+770.000E-06,+1.195738700E+00
+775.000E-06,+1.165587947E+00
+780.000E-06,+1.085185938E+00
+785.000E-06,+1.034934682E+00
+790.000E-06,+1.060060310E+00
+795.000E-06,+1.004783928E+00
+800.000E-06,+954.532673E-03
+805.000E-06,+899.256291E-03
+810.000E-06,+818.854282E-03
+815.000E-06,+843.979910E-03
+820.000E-06,+818.854282E-03
+825.000E-06,+632.924636E-03
+830.000E-06,+632.924636E-03
+835.000E-06,+632.924636E-03
+840.000E-06,+497.246245E-03
+845.000E-06,+522.371873E-03
+850.000E-06,+522.371873E-03
+855.000E-06,+472.120618E-03
+860.000E-06,+472.120618E-03
+865.000E-06,+281.165846E-03
+870.000E-06,+311.316599E-03
+875.000E-06,+200.763837E-03
+880.000E-06,+175.638209E-03
+885.000E-06,+175.638209E-03
+890.000E-06,+95.236199E-03
+895.000E-06,+39.959818E-03
+900.000E-06,-40.442191E-03
+905.000E-06,-40.442191E-03
+910.000E-06,-65.567819E-03
+915.000E-06,-171.095456E-03
+920.000E-06,-201.246209E-03
+925.000E-06,-201.246209E-03
+930.000E-06,-281.648219E-03
+935.000E-06,-281.648219E-03
+940.000E-06,-412.301484E-03
+945.000E-06,-467.577865E-03
+950.000E-06,-573.105502E-03
+955.000E-06,-603.256255E-03
+960.000E-06,-708.783892E-03
+965.000E-06,-789.185902E-03
+970.000E-06,-789.185902E-03
+975.000E-06,-869.587911E-03
+980.000E-06,-949.989920E-03
+985.000E-06,-1.005266301E+00
+990.000E-06,-1.085668311E+00
+995.000E-06,-1.166070320E+00
+1.000000E-03,-1.246472329E+00
+1.005000E-03,-1.377125594E+00
+1.010000E-03,-1.457527603E+00
+1.015000E-03,-1.568080366E+00
+1.020000E-03,-1.648482375E+00
+1.025000E-03,-1.779135640E+00
+1.030000E-03,-1.889688402E+00
+1.035000E-03,-1.970090412E+00
+1.040000E-03,-2.050492421E+00
+1.045000E-03,-2.100743677E+00
+1.050000E-03,-2.156020058E+00
+1.055000E-03,-2.181145686E+00
+1.060000E-03,-2.211296439E+00
+1.065000E-03,-2.211296439E+00
+1.070000E-03,-2.236422067E+00
+1.075000E-03,-2.211296439E+00
+1.080000E-03,-2.236422067E+00
+1.085000E-03,-2.211296439E+00
+1.090000E-03,-2.211296439E+00
+1.095000E-03,-2.211296439E+00
+1.100000E-03,-2.211296439E+00
+1.105000E-03,-2.211296439E+00
+1.110000E-03,-2.236422067E+00
+1.115000E-03,-2.236422067E+00
+1.120000E-03,-2.236422067E+00
+1.125000E-03,-2.211296439E+00
+1.130000E-03,-2.236422067E+00
+1.135000E-03,-2.211296439E+00
+1.140000E-03,-2.156020058E+00
+1.145000E-03,-2.211296439E+00
+1.150000E-03,-2.181145686E+00
+1.155000E-03,-2.156020058E+00
+1.160000E-03,-2.211296439E+00
+1.165000E-03,-2.211296439E+00
+1.170000E-03,-2.211296439E+00
+1.175000E-03,-2.291698448E+00
+1.180000E-03,-2.291698448E+00
+1.185000E-03,-2.261547695E+00
+1.190000E-03,-2.236422067E+00
+1.195000E-03,-2.291698448E+00
+1.200000E-03,-2.372100458E+00
+1.205000E-03,-2.372100458E+00
+1.210000E-03,-2.316824076E+00
+1.215000E-03,-2.397226085E+00
+1.220000E-03,-2.397226085E+00
+1.225000E-03,-2.452502467E+00
+1.230000E-03,-2.316824076E+00
+1.235000E-03,-2.422351713E+00
+1.240000E-03,-2.291698448E+00
+1.245000E-03,-2.291698448E+00
+1.250000E-03,-2.236422067E+00
+1.255000E-03,-2.211296439E+00
+1.260000E-03,-2.211296439E+00
+1.265000E-03,-2.211296439E+00
+1.270000E-03,-2.156020058E+00
+1.275000E-03,-2.075618049E+00
+1.280000E-03,-2.050492421E+00
+1.285000E-03,-2.050492421E+00
+1.290000E-03,-2.050492421E+00
+1.295000E-03,-1.970090412E+00
+1.300000E-03,-1.970090412E+00
+1.305000E-03,-1.834412021E+00
+1.310000E-03,-1.889688402E+00
+1.315000E-03,-1.889688402E+00
+1.320000E-03,-1.809286393E+00
+1.325000E-03,-1.779135640E+00
+1.330000E-03,-1.698733631E+00
+1.335000E-03,-1.809286393E+00
+1.340000E-03,-1.728884384E+00
+1.345000E-03,-1.648482375E+00
+1.350000E-03,-1.618331621E+00
+1.355000E-03,-1.618331621E+00
+1.360000E-03,-1.568080366E+00
+1.365000E-03,-1.593205994E+00
+1.370000E-03,-1.537929612E+00
+1.375000E-03,-1.487678356E+00
+1.380000E-03,-1.512803984E+00
+1.385000E-03,-1.457527603E+00
+1.390000E-03,-1.407276347E+00
+1.395000E-03,-1.432401975E+00
+1.400000E-03,-1.407276347E+00
+1.405000E-03,-1.296723585E+00
+1.410000E-03,-1.296723585E+00
+1.415000E-03,-1.216321575E+00
+1.420000E-03,-1.246472329E+00
+1.425000E-03,-1.216321575E+00
+1.430000E-03,-1.135919566E+00
+1.435000E-03,-1.135919566E+00
+1.440000E-03,-1.110793938E+00
+1.445000E-03,-1.085668311E+00
+1.450000E-03,-975.115548E-03
+1.455000E-03,-1.005266301E+00
+1.460000E-03,-1.030391929E+00
+1.465000E-03,-949.989920E-03
+1.470000E-03,-975.115548E-03
+1.475000E-03,-924.864292E-03
+1.480000E-03,-869.587911E-03
+1.485000E-03,-844.462283E-03
+1.490000E-03,-814.311530E-03
+1.495000E-03,-764.060274E-03
+1.500000E-03,-708.783892E-03
+1.505000E-03,-733.909520E-03
+1.510000E-03,-603.256255E-03
+1.515000E-03,-653.507511E-03
+1.520000E-03,-573.105502E-03
+1.525000E-03,-603.256255E-03
+1.530000E-03,-547.979874E-03
+1.535000E-03,-547.979874E-03
+1.540000E-03,-547.979874E-03
+1.545000E-03,-412.301484E-03
+1.550000E-03,-492.703493E-03
+1.555000E-03,-442.452237E-03
+1.560000E-03,-362.050228E-03
+1.565000E-03,-362.050228E-03
+1.570000E-03,-331.899474E-03
+1.575000E-03,-306.773847E-03
+1.580000E-03,-171.095456E-03
+1.585000E-03,-281.648219E-03
+1.590000E-03,-201.246209E-03
+1.595000E-03,-201.246209E-03
+1.600000E-03,-120.844200E-03
+1.605000E-03,-120.844200E-03
+1.610000E-03,-40.442191E-03
+1.615000E-03,-65.567819E-03
+1.620000E-03,+14.834190E-03
+1.625000E-03,+39.959818E-03
+1.630000E-03,+14.834190E-03
+1.635000E-03,+70.110572E-03
+1.640000E-03,+120.361827E-03
+1.645000E-03,+120.361827E-03
+1.650000E-03,+200.763837E-03
+1.655000E-03,+230.914590E-03
+1.660000E-03,+230.914590E-03
+1.665000E-03,+281.165846E-03
+1.670000E-03,+256.040218E-03
+1.675000E-03,+281.165846E-03
+1.680000E-03,+361.567855E-03
+1.685000E-03,+361.567855E-03
+1.690000E-03,+391.718608E-03
+1.695000E-03,+472.120618E-03
+1.700000E-03,+497.246245E-03
+1.705000E-03,+552.522627E-03
+1.710000E-03,+522.371873E-03
+1.715000E-03,+552.522627E-03
+1.720000E-03,+602.773882E-03
+1.725000E-03,+602.773882E-03
+1.730000E-03,+602.773882E-03
+1.735000E-03,+738.452273E-03
+1.740000E-03,+713.326645E-03
+1.745000E-03,+713.326645E-03
+1.750000E-03,+818.854282E-03
+1.755000E-03,+793.728654E-03
+1.760000E-03,+843.979910E-03
+1.765000E-03,+843.979910E-03
+1.770000E-03,+979.658301E-03
+1.775000E-03,+924.381919E-03
+1.780000E-03,+924.381919E-03
+1.785000E-03,+954.532673E-03
+1.790000E-03,+924.381919E-03
+1.795000E-03,+1.034934682E+00
+1.800000E-03,+1.085185938E+00
+1.805000E-03,+1.140462319E+00
+1.810000E-03,+1.165587947E+00
+1.815000E-03,+1.165587947E+00
+1.820000E-03,+1.220864328E+00
+1.825000E-03,+1.195738700E+00
+1.830000E-03,+1.301266337E+00
+1.835000E-03,+1.276140709E+00
+1.840000E-03,+1.326391965E+00
+1.845000E-03,+1.356542719E+00
+1.850000E-03,+1.381668346E+00
+1.855000E-03,+1.406793974E+00
+1.860000E-03,+1.406793974E+00
+1.865000E-03,+1.487195984E+00
+1.870000E-03,+1.567597993E+00
+1.875000E-03,+1.517346737E+00
+1.880000E-03,+1.567597993E+00
+1.885000E-03,+1.567597993E+00
+1.890000E-03,+1.622874374E+00
+1.895000E-03,+1.728402011E+00
+1.900000E-03,+1.648000002E+00
+1.905000E-03,+1.673125630E+00
+1.910000E-03,+1.728402011E+00
+1.915000E-03,+1.728402011E+00
+1.920000E-03,+1.778653267E+00
+1.925000E-03,+1.778653267E+00
+1.930000E-03,+1.778653267E+00
+1.935000E-03,+1.859055276E+00
+1.940000E-03,+1.833929648E+00
+1.945000E-03,+1.889206029E+00
+1.950000E-03,+1.889206029E+00
+1.955000E-03,+1.889206029E+00
+1.960000E-03,+1.889206029E+00
+1.965000E-03,+1.889206029E+00
+1.970000E-03,+1.889206029E+00
+1.975000E-03,+1.889206029E+00
+1.980000E-03,+1.914331657E+00
+1.985000E-03,+1.914331657E+00
+1.990000E-03,+1.939457285E+00
+1.995000E-03,+1.889206029E+00
+2.000000E-03,+1.914331657E+00
+2.005000E-03,+1.939457285E+00
+2.010000E-03,+1.914331657E+00
+2.015000E-03,+1.889206029E+00
+2.020000E-03,+1.969608039E+00
+2.025000E-03,+1.969608039E+00
+2.030000E-03,+1.889206029E+00
+2.035000E-03,+1.889206029E+00
+2.040000E-03,+1.914331657E+00
+2.045000E-03,+1.914331657E+00
+2.050000E-03,+1.969608039E+00
+2.055000E-03,+1.939457285E+00
+2.060000E-03,+1.914331657E+00
+2.065000E-03,+1.939457285E+00
+2.070000E-03,+1.889206029E+00
+2.075000E-03,+1.969608039E+00
+2.080000E-03,+1.889206029E+00
+2.085000E-03,+1.994733667E+00
+2.090000E-03,+1.939457285E+00
+2.095000E-03,+2.019859294E+00
+2.100000E-03,+1.939457285E+00
+2.105000E-03,+1.914331657E+00
+2.110000E-03,+1.914331657E+00
+2.115000E-03,+1.969608039E+00
+2.120000E-03,+1.889206029E+00
+2.125000E-03,+1.969608039E+00
+2.130000E-03,+1.889206029E+00
+2.135000E-03,+1.969608039E+00
+2.140000E-03,+1.939457285E+00
+2.145000E-03,+1.969608039E+00
+2.150000E-03,+1.914331657E+00
+2.155000E-03,+1.914331657E+00
+2.160000E-03,+1.939457285E+00
+2.165000E-03,+1.969608039E+00
+2.170000E-03,+1.969608039E+00
+2.175000E-03,+1.969608039E+00
+2.180000E-03,+1.914331657E+00
+2.185000E-03,+1.939457285E+00
+2.190000E-03,+1.889206029E+00
+2.195000E-03,+1.969608039E+00
+2.200000E-03,+1.889206029E+00
+2.205000E-03,+1.969608039E+00
+2.210000E-03,+1.914331657E+00
+2.215000E-03,+1.914331657E+00
+2.220000E-03,+1.969608039E+00
+2.225000E-03,+1.914331657E+00
+2.230000E-03,+1.939457285E+00
+2.235000E-03,+1.914331657E+00
+2.240000E-03,+1.969608039E+00
+2.245000E-03,+1.889206029E+00
+2.250000E-03,+1.969608039E+00
+2.255000E-03,+1.939457285E+00
+2.260000E-03,+1.889206029E+00
+2.265000E-03,+1.859055276E+00
+2.270000E-03,+1.833929648E+00
+2.275000E-03,+1.778653267E+00
+2.280000E-03,+1.728402011E+00
+2.285000E-03,+1.753527639E+00
+2.290000E-03,+1.648000002E+00
+2.295000E-03,+1.622874374E+00
+2.300000E-03,+1.673125630E+00
+2.305000E-03,+1.622874374E+00
+2.310000E-03,+1.517346737E+00
+2.315000E-03,+1.436944728E+00
+2.320000E-03,+1.487195984E+00
+2.325000E-03,+1.406793974E+00
+2.330000E-03,+1.356542719E+00
+2.335000E-03,+1.301266337E+00
+2.340000E-03,+1.276140709E+00
+2.345000E-03,+1.245989956E+00
+2.350000E-03,+1.165587947E+00
+2.355000E-03,+1.140462319E+00
+2.360000E-03,+1.085185938E+00
+2.365000E-03,+1.004783928E+00
+2.370000E-03,+954.532673E-03
+2.375000E-03,+979.658301E-03
+2.380000E-03,+1.004783928E+00
+2.385000E-03,+843.979910E-03
+2.390000E-03,+874.130663E-03
+2.395000E-03,+843.979910E-03
+2.400000E-03,+818.854282E-03
+2.405000E-03,+738.452273E-03
+2.410000E-03,+632.924636E-03
+2.415000E-03,+602.773882E-03
+2.420000E-03,+552.522627E-03
+2.425000E-03,+522.371873E-03
+2.430000E-03,+472.120618E-03
+2.435000E-03,+472.120618E-03
+2.440000E-03,+391.718608E-03
+2.445000E-03,+311.316599E-03
+2.450000E-03,+281.165846E-03
+2.455000E-03,+256.040218E-03
+2.460000E-03,+175.638209E-03
+2.465000E-03,+200.763837E-03
+2.470000E-03,+120.361827E-03
+2.475000E-03,+95.236199E-03
+2.480000E-03,-10.291438E-03
+2.485000E-03,-10.291438E-03
+2.490000E-03,-145.969828E-03
+2.495000E-03,-120.844200E-03
+2.500000E-03,-145.969828E-03
+2.505000E-03,-331.899474E-03
+2.510000E-03,-281.648219E-03
+2.515000E-03,-306.773847E-03
+2.520000E-03,-412.301484E-03
+2.525000E-03,-522.854246E-03
+2.530000E-03,-522.854246E-03
+2.535000E-03,-628.381883E-03
+2.540000E-03,-683.658265E-03
+2.545000E-03,-764.060274E-03
+2.550000E-03,-844.462283E-03
+2.555000E-03,-894.713539E-03
+2.560000E-03,-975.115548E-03
+2.565000E-03,-1.055517557E+00
+2.570000E-03,-1.030391929E+00
+2.575000E-03,-1.296723585E+00
+2.580000E-03,-1.296723585E+00
+2.585000E-03,-1.351999966E+00
+2.590000E-03,-1.537929612E+00
+2.595000E-03,-1.568080366E+00
+2.600000E-03,-1.648482375E+00
+2.605000E-03,-1.728884384E+00
+2.610000E-03,-1.809286393E+00
+2.615000E-03,-1.970090412E+00
+2.620000E-03,-1.995216039E+00
+2.625000E-03,-2.050492421E+00
+2.630000E-03,-2.130894430E+00
+2.635000E-03,-2.211296439E+00
+2.640000E-03,-2.181145686E+00
+2.645000E-03,-2.236422067E+00
+2.650000E-03,-2.211296439E+00
+2.655000E-03,-2.211296439E+00
+2.660000E-03,-2.211296439E+00
+2.665000E-03,-2.236422067E+00
+2.670000E-03,-2.236422067E+00
+2.675000E-03,-2.236422067E+00
+2.680000E-03,-2.236422067E+00
+2.685000E-03,-2.211296439E+00
+2.690000E-03,-2.211296439E+00
+2.695000E-03,-2.211296439E+00
+2.700000E-03,-2.211296439E+00
+2.705000E-03,-2.211296439E+00
+2.710000E-03,-2.261547695E+00
+2.715000E-03,-2.211296439E+00
+2.720000E-03,-2.236422067E+00
+2.725000E-03,-2.156020058E+00
+2.730000E-03,-2.211296439E+00
+2.735000E-03,-2.211296439E+00
+2.740000E-03,-2.211296439E+00
+2.745000E-03,-2.211296439E+00
+2.750000E-03,-2.236422067E+00
+2.755000E-03,-2.236422067E+00
+2.760000E-03,-2.211296439E+00
+2.765000E-03,-2.291698448E+00
+2.770000E-03,-2.316824076E+00
+2.775000E-03,-2.397226085E+00
+2.780000E-03,-2.316824076E+00
+2.785000E-03,-2.291698448E+00
+2.790000E-03,-2.422351713E+00
+2.795000E-03,-2.397226085E+00
+2.800000E-03,-2.452502467E+00
+2.805000E-03,-2.372100458E+00
+2.810000E-03,-2.316824076E+00
+2.815000E-03,-2.316824076E+00
+2.820000E-03,-2.341949704E+00
+2.825000E-03,-2.236422067E+00
+2.830000E-03,-2.211296439E+00
+2.835000E-03,-2.211296439E+00
+2.840000E-03,-2.211296439E+00
+2.845000E-03,-2.130894430E+00
+2.850000E-03,-2.130894430E+00
+2.855000E-03,-2.156020058E+00
+2.860000E-03,-2.050492421E+00
+2.865000E-03,-2.020341667E+00
+2.870000E-03,-2.020341667E+00
+2.875000E-03,-1.970090412E+00
+2.880000E-03,-1.939939658E+00
+2.885000E-03,-1.889688402E+00
+2.890000E-03,-1.889688402E+00
+2.895000E-03,-1.859537649E+00
+2.900000E-03,-1.859537649E+00
+2.905000E-03,-1.728884384E+00
+2.910000E-03,-1.728884384E+00
+2.915000E-03,-1.779135640E+00
+2.920000E-03,-1.728884384E+00
+2.925000E-03,-1.698733631E+00
+2.930000E-03,-1.648482375E+00
+2.935000E-03,-1.648482375E+00
+2.940000E-03,-1.618331621E+00
+2.945000E-03,-1.568080366E+00
+2.950000E-03,-1.512803984E+00
+2.955000E-03,-1.457527603E+00
+2.960000E-03,-1.457527603E+00
+2.965000E-03,-1.407276347E+00
+2.970000E-03,-1.487678356E+00
+2.975000E-03,-1.407276347E+00
+2.980000E-03,-1.271597957E+00
+2.985000E-03,-1.326874338E+00
+2.990000E-03,-1.296723585E+00
+2.995000E-03,-1.246472329E+00
+3.000000E-03,-1.191195948E+00
+3.005000E-03,-1.216321575E+00
+3.010000E-03,-1.110793938E+00
+3.015000E-03,-1.085668311E+00
+3.020000E-03,-1.110793938E+00
+3.025000E-03,-1.085668311E+00
+3.030000E-03,-1.055517557E+00
+3.035000E-03,-1.005266301E+00
+3.040000E-03,-1.005266301E+00
+3.045000E-03,-924.864292E-03
+3.050000E-03,-924.864292E-03
+3.055000E-03,-869.587911E-03
+3.060000E-03,-789.185902E-03
+3.065000E-03,-844.462283E-03
+3.070000E-03,-844.462283E-03
+3.075000E-03,-844.462283E-03
+3.080000E-03,-683.658265E-03
+3.085000E-03,-708.783892E-03
+3.090000E-03,-628.381883E-03
+3.095000E-03,-653.507511E-03
+3.100000E-03,-628.381883E-03
+3.105000E-03,-653.507511E-03
+3.110000E-03,-573.105502E-03
+3.115000E-03,-547.979874E-03
+3.120000E-03,-522.854246E-03
+3.125000E-03,-442.452237E-03
+3.130000E-03,-412.301484E-03
+3.135000E-03,-362.050228E-03
+3.140000E-03,-387.175856E-03
+3.145000E-03,-387.175856E-03
+3.150000E-03,-281.648219E-03
+3.155000E-03,-281.648219E-03
+3.160000E-03,-226.371837E-03
+3.165000E-03,-201.246209E-03
+3.170000E-03,-201.246209E-03
+3.175000E-03,-171.095456E-03
+3.180000E-03,-120.844200E-03
+3.185000E-03,-120.844200E-03
+3.190000E-03,-65.567819E-03
+3.195000E-03,-90.693447E-03
+3.200000E-03,-10.291438E-03
+3.205000E-03,+39.959818E-03
+3.210000E-03,+14.834190E-03
+3.215000E-03,+70.110572E-03
+3.220000E-03,+39.959818E-03
+3.225000E-03,+150.512581E-03
+3.230000E-03,+120.361827E-03
+3.235000E-03,+256.040218E-03
+3.240000E-03,+150.512581E-03
+3.245000E-03,+281.165846E-03
+3.250000E-03,+281.165846E-03
+3.255000E-03,+281.165846E-03
+3.260000E-03,+311.316599E-03
+3.265000E-03,+441.969864E-03
+3.270000E-03,+391.718608E-03
+3.275000E-03,+472.120618E-03
+3.280000E-03,+472.120618E-03
+3.285000E-03,+497.246245E-03
+3.290000E-03,+522.371873E-03
+3.295000E-03,+552.522627E-03
+3.300000E-03,+602.773882E-03
+3.305000E-03,+658.050264E-03
+3.310000E-03,+738.452273E-03
+3.315000E-03,+713.326645E-03
+3.320000E-03,+683.175892E-03
+3.325000E-03,+738.452273E-03
+3.330000E-03,+818.854282E-03
+3.335000E-03,+793.728654E-03
+3.340000E-03,+793.728654E-03
+3.345000E-03,+954.532673E-03
+3.350000E-03,+899.256291E-03
+3.355000E-03,+954.532673E-03
+3.360000E-03,+1.004783928E+00
+3.365000E-03,+979.658301E-03
+3.370000E-03,+954.532673E-03
+3.375000E-03,+1.085185938E+00
+3.380000E-03,+1.085185938E+00
+3.385000E-03,+1.085185938E+00
+3.390000E-03,+1.115336691E+00
+3.395000E-03,+1.195738700E+00
+3.400000E-03,+1.276140709E+00
+3.405000E-03,+1.245989956E+00
+3.410000E-03,+1.326391965E+00
+3.415000E-03,+1.381668346E+00
+3.420000E-03,+1.326391965E+00
+3.425000E-03,+1.406793974E+00
+3.430000E-03,+1.406793974E+00
+3.435000E-03,+1.406793974E+00
+3.440000E-03,+1.462070356E+00
+3.445000E-03,+1.462070356E+00
+3.450000E-03,+1.487195984E+00
+3.455000E-03,+1.517346737E+00
+3.460000E-03,+1.542472365E+00
+3.465000E-03,+1.567597993E+00
+3.470000E-03,+1.648000002E+00
+3.475000E-03,+1.648000002E+00
+3.480000E-03,+1.648000002E+00
+3.485000E-03,+1.673125630E+00
+3.490000E-03,+1.698251258E+00
+3.495000E-03,+1.698251258E+00
+3.500000E-03,+1.808804020E+00
+3.505000E-03,+1.808804020E+00
+3.510000E-03,+1.808804020E+00
+3.515000E-03,+1.859055276E+00
+3.520000E-03,+1.859055276E+00
+3.525000E-03,+1.889206029E+00
+3.530000E-03,+1.889206029E+00
+3.535000E-03,+1.889206029E+00
+3.540000E-03,+1.914331657E+00
+3.545000E-03,+1.914331657E+00
+3.550000E-03,+1.939457285E+00
+3.555000E-03,+1.939457285E+00
+3.560000E-03,+1.939457285E+00
+3.565000E-03,+1.939457285E+00
+3.570000E-03,+1.889206029E+00
+3.575000E-03,+1.889206029E+00
+3.580000E-03,+1.914331657E+00
+3.585000E-03,+1.914331657E+00
+3.590000E-03,+1.889206029E+00
+3.595000E-03,+1.939457285E+00
+3.600000E-03,+1.889206029E+00
+3.605000E-03,+1.939457285E+00
+3.610000E-03,+1.914331657E+00
+3.615000E-03,+1.969608039E+00
+3.620000E-03,+1.939457285E+00
+3.625000E-03,+1.969608039E+00
+3.630000E-03,+1.939457285E+00
+3.635000E-03,+1.914331657E+00
+3.640000E-03,+1.994733667E+00
+3.645000E-03,+1.914331657E+00
+3.650000E-03,+1.969608039E+00
+3.655000E-03,+1.889206029E+00
+3.660000E-03,+1.889206029E+00
+3.665000E-03,+1.914331657E+00
+3.670000E-03,+1.939457285E+00
+3.675000E-03,+1.939457285E+00
+3.680000E-03,+1.889206029E+00
+3.685000E-03,+1.889206029E+00
+3.690000E-03,+1.969608039E+00
+3.695000E-03,+1.939457285E+00
+3.700000E-03,+1.889206029E+00
+3.705000E-03,+1.939457285E+00
+3.710000E-03,+1.889206029E+00
+3.715000E-03,+1.939457285E+00
+3.720000E-03,+1.939457285E+00
+3.725000E-03,+1.914331657E+00
+3.730000E-03,+1.889206029E+00
+3.735000E-03,+1.889206029E+00
+3.740000E-03,+1.969608039E+00
+3.745000E-03,+1.914331657E+00
+3.750000E-03,+1.939457285E+00
+3.755000E-03,+1.969608039E+00
+3.760000E-03,+1.914331657E+00
+3.765000E-03,+1.939457285E+00
+3.770000E-03,+1.939457285E+00
+3.775000E-03,+1.914331657E+00
+3.780000E-03,+1.914331657E+00
+3.785000E-03,+1.914331657E+00
+3.790000E-03,+1.939457285E+00
+3.795000E-03,+1.939457285E+00
+3.800000E-03,+1.889206029E+00
+3.805000E-03,+1.969608039E+00
+3.810000E-03,+1.889206029E+00
+3.815000E-03,+1.969608039E+00
+3.820000E-03,+1.889206029E+00
+3.825000E-03,+2.019859294E+00
+3.830000E-03,+1.939457285E+00
+3.835000E-03,+1.889206029E+00
+3.840000E-03,+1.939457285E+00
+3.845000E-03,+1.889206029E+00
+3.850000E-03,+1.778653267E+00
+3.855000E-03,+1.728402011E+00
+3.860000E-03,+1.728402011E+00
+3.865000E-03,+1.648000002E+00
+3.870000E-03,+1.728402011E+00
+3.875000E-03,+1.648000002E+00
+3.880000E-03,+1.567597993E+00
+3.885000E-03,+1.542472365E+00
+3.890000E-03,+1.517346737E+00
+3.895000E-03,+1.462070356E+00
+3.900000E-03,+1.436944728E+00
+3.905000E-03,+1.406793974E+00
+3.910000E-03,+1.326391965E+00
+3.915000E-03,+1.326391965E+00
+3.920000E-03,+1.245989956E+00
+3.925000E-03,+1.245989956E+00
+3.930000E-03,+1.165587947E+00
+3.935000E-03,+1.115336691E+00
+3.940000E-03,+1.085185938E+00
+3.945000E-03,+1.060060310E+00
+3.950000E-03,+1.034934682E+00
+3.955000E-03,+1.004783928E+00
+3.960000E-03,+924.381919E-03
+3.965000E-03,+843.979910E-03
+3.970000E-03,+843.979910E-03
+3.975000E-03,+763.577901E-03
+3.980000E-03,+738.452273E-03
+3.985000E-03,+713.326645E-03
+3.990000E-03,+713.326645E-03
+3.995000E-03,+632.924636E-03
+4.000000E-03,+602.773882E-03
+4.005000E-03,+522.371873E-03
+4.010000E-03,+472.120618E-03
+4.015000E-03,+391.718608E-03
+4.020000E-03,+336.442227E-03
+4.025000E-03,+336.442227E-03
+4.030000E-03,+361.567855E-03
+4.035000E-03,+256.040218E-03
+4.040000E-03,+175.638209E-03
+4.045000E-03,+120.361827E-03
+4.050000E-03,+120.361827E-03
+4.055000E-03,+70.110572E-03
+4.060000E-03,-40.442191E-03
+4.065000E-03,-40.442191E-03
+4.070000E-03,-65.567819E-03
+4.075000E-03,-120.844200E-03
+4.080000E-03,-171.095456E-03
+4.085000E-03,-281.648219E-03
+4.090000E-03,-281.648219E-03
+4.095000E-03,-412.301484E-03
+4.100000E-03,-442.452237E-03
+4.105000E-03,-492.703493E-03
+4.110000E-03,-522.854246E-03
+4.115000E-03,-628.381883E-03
+4.120000E-03,-683.658265E-03
+4.125000E-03,-764.060274E-03
+4.130000E-03,-844.462283E-03
+4.135000E-03,-894.713539E-03
+4.140000E-03,-949.989920E-03
+4.145000E-03,-1.055517557E+00
+4.150000E-03,-1.166070320E+00
+4.155000E-03,-1.216321575E+00
+4.160000E-03,-1.351999966E+00
+4.165000E-03,-1.377125594E+00
+4.170000E-03,-1.457527603E+00
+4.175000E-03,-1.568080366E+00
+4.180000E-03,-1.648482375E+00
+4.185000E-03,-1.728884384E+00
+4.190000E-03,-1.834412021E+00
+4.195000E-03,-1.889688402E+00
+4.200000E-03,-2.020341667E+00
+4.205000E-03,-2.130894430E+00
+4.210000E-03,-2.130894430E+00
+4.215000E-03,-2.211296439E+00
+4.220000E-03,-2.181145686E+00
+4.225000E-03,-2.236422067E+00
+4.230000E-03,-2.211296439E+00
+4.235000E-03,-2.211296439E+00
+4.240000E-03,-2.291698448E+00
+4.245000E-03,-2.261547695E+00
+4.250000E-03,-2.181145686E+00
+4.255000E-03,-2.211296439E+00
+4.260000E-03,-2.211296439E+00
+4.265000E-03,-2.211296439E+00
+4.270000E-03,-2.181145686E+00
+4.275000E-03,-2.156020058E+00
+4.280000E-03,-2.211296439E+00
+4.285000E-03,-2.156020058E+00
+4.290000E-03,-2.211296439E+00
+4.295000E-03,-2.156020058E+00
+4.300000E-03,-2.211296439E+00
+4.305000E-03,-2.156020058E+00
+4.310000E-03,-2.261547695E+00
+4.315000E-03,-2.211296439E+00
+4.320000E-03,-2.236422067E+00
+4.325000E-03,-2.156020058E+00
+4.330000E-03,-2.236422067E+00
+4.335000E-03,-2.211296439E+00
+4.340000E-03,-2.236422067E+00
+4.345000E-03,-2.291698448E+00
+4.350000E-03,-2.291698448E+00
+4.355000E-03,-2.261547695E+00
+4.360000E-03,-2.291698448E+00
+4.365000E-03,-2.372100458E+00
+4.370000E-03,-2.372100458E+00
+4.375000E-03,-2.422351713E+00
+4.380000E-03,-2.372100458E+00
+4.385000E-03,-2.372100458E+00
+4.390000E-03,-2.422351713E+00
+4.395000E-03,-2.236422067E+00
+4.400000E-03,-2.291698448E+00
+4.405000E-03,-2.261547695E+00
+4.410000E-03,-2.291698448E+00
+4.415000E-03,-2.261547695E+00
+4.420000E-03,-2.156020058E+00
+4.425000E-03,-2.181145686E+00
+4.430000E-03,-2.075618049E+00
+4.435000E-03,-2.100743677E+00
+4.440000E-03,-2.100743677E+00
+4.445000E-03,-2.020341667E+00
+4.450000E-03,-2.020341667E+00
+4.455000E-03,-2.020341667E+00
+4.460000E-03,-1.914814030E+00
+4.465000E-03,-1.889688402E+00
+4.470000E-03,-1.914814030E+00
+4.475000E-03,-1.889688402E+00
+4.480000E-03,-1.834412021E+00
+4.485000E-03,-1.834412021E+00
+4.490000E-03,-1.809286393E+00
+4.495000E-03,-1.673608003E+00
+4.500000E-03,-1.728884384E+00
+4.505000E-03,-1.728884384E+00
+4.510000E-03,-1.648482375E+00
+4.515000E-03,-1.593205994E+00
+4.520000E-03,-1.568080366E+00
+4.525000E-03,-1.568080366E+00
+4.530000E-03,-1.537929612E+00
+4.535000E-03,-1.568080366E+00
+4.540000E-03,-1.432401975E+00
+4.545000E-03,-1.407276347E+00
+4.550000E-03,-1.407276347E+00
+4.555000E-03,-1.407276347E+00
+4.560000E-03,-1.296723585E+00
+4.565000E-03,-1.271597957E+00
+4.570000E-03,-1.326874338E+00
+4.575000E-03,-1.296723585E+00
+4.580000E-03,-1.216321575E+00
+4.585000E-03,-1.216321575E+00
+4.590000E-03,-1.216321575E+00
+4.595000E-03,-1.135919566E+00
+4.600000E-03,-1.055517557E+00
+4.605000E-03,-1.085668311E+00
+4.610000E-03,-1.005266301E+00
+4.615000E-03,-1.030391929E+00
+4.620000E-03,-1.005266301E+00
+4.625000E-03,-924.864292E-03
+4.630000E-03,-949.989920E-03
+4.635000E-03,-924.864292E-03
+4.640000E-03,-869.587911E-03
+4.645000E-03,-844.462283E-03
+4.650000E-03,-844.462283E-03
+4.655000E-03,-789.185902E-03
+4.660000E-03,-683.658265E-03
+4.665000E-03,-683.658265E-03
+4.670000E-03,-653.507511E-03
+4.675000E-03,-628.381883E-03
+4.680000E-03,-603.256255E-03
+4.685000E-03,-547.979874E-03
+4.690000E-03,-603.256255E-03
+4.695000E-03,-547.979874E-03
+4.700000E-03,-467.577865E-03
+4.705000E-03,-442.452237E-03
+4.710000E-03,-387.175856E-03
+4.715000E-03,-362.050228E-03
+4.720000E-03,-362.050228E-03
+4.725000E-03,-362.050228E-03
+4.730000E-03,-306.773847E-03
+4.735000E-03,-226.371837E-03
+4.740000E-03,-306.773847E-03
+4.745000E-03,-251.497465E-03
+4.750000E-03,-226.371837E-03
+4.755000E-03,-120.844200E-03
+4.760000E-03,-90.693447E-03
+4.765000E-03,-145.969828E-03
+4.770000E-03,-90.693447E-03
+4.775000E-03,+14.834190E-03
+4.780000E-03,+39.959818E-03
+4.785000E-03,+39.959818E-03
+4.790000E-03,+70.110572E-03
+4.795000E-03,+175.638209E-03
+4.800000E-03,+120.361827E-03
+4.805000E-03,+120.361827E-03
+4.810000E-03,+200.763837E-03
+4.815000E-03,+200.763837E-03
+4.820000E-03,+230.914590E-03
+4.825000E-03,+230.914590E-03
+4.830000E-03,+281.165846E-03
+4.835000E-03,+336.442227E-03
+4.840000E-03,+361.567855E-03
+4.845000E-03,+441.969864E-03
+4.850000E-03,+416.844236E-03
+4.855000E-03,+416.844236E-03
+4.860000E-03,+472.120618E-03
+4.865000E-03,+497.246245E-03
+4.870000E-03,+552.522627E-03
+4.875000E-03,+522.371873E-03
+4.880000E-03,+577.648255E-03
+4.885000E-03,+632.924636E-03
+4.890000E-03,+658.050264E-03
+4.895000E-03,+658.050264E-03
+4.900000E-03,+763.577901E-03
+4.905000E-03,+738.452273E-03
+4.910000E-03,+818.854282E-03
+4.915000E-03,+874.130663E-03
+4.920000E-03,+793.728654E-03
+4.925000E-03,+874.130663E-03
+4.930000E-03,+874.130663E-03
+4.935000E-03,+924.381919E-03
+4.940000E-03,+1.004783928E+00
+4.945000E-03,+1.060060310E+00
+4.950000E-03,+954.532673E-03
+4.955000E-03,+1.004783928E+00
+4.960000E-03,+1.085185938E+00
+4.965000E-03,+1.060060310E+00
+4.970000E-03,+1.085185938E+00
+4.975000E-03,+1.140462319E+00
+4.980000E-03,+1.220864328E+00
+4.985000E-03,+1.245989956E+00
+4.990000E-03,+1.326391965E+00
+4.995000E-03,+1.301266337E+00
